# -----------------------------------------------
# 
  2897.238
 -2189.230
  -773.950
   462.048
  1135.668
  1261.578
  1008.847
   568.138
    95.309
  -303.602
  -569.279
  -680.235
  -643.479
  -486.477
  -250.607
    14.156
   253.624
   413.050
   440.152
   287.537
   -85.459
  -940.419
    15.271
   489.841
   793.713
   774.914
   669.887
   549.185
   381.968
   160.682
   -82.083
  -301.370
  -462.287
  -547.038
  -552.240
  -483.133
  -348.366
  -156.575
    85.318
   372.589
   702.493
 -1924.266
 -2583.454
 -1265.563
   448.126
  1503.454
  1542.781
   759.994
  -353.135
 -1281.953
 -1692.425
 -1507.189
  -863.590
   -11.537
   787.068
  1323.377
  1467.093
  1164.121
   420.393
  -717.904
 -2182.162
  -306.320
  -306.323
  -306.325
  -306.328
  -306.330
  -306.333
  -306.336
  -306.338
  -306.341
  -306.343
  -306.346
  -306.349
  -306.351
  -306.354
  -306.356
  -306.359
  -306.362
  -306.364
  -306.367
  -306.369
   -74.151
   -74.152
  -667.534
  -667.534
   -74.153
    72.901
    72.902
  1586.367
  1322.642
  1151.535
  1196.195
  1265.188
  1243.527
  1101.802
   857.387
   545.126
   202.417
  -135.974
  -438.358
  -675.191
  -818.452
  -841.868
  -721.861
  -438.845
    21.511
   667.351
  1500.175
  1083.610
   113.389
  1307.251
   606.128
 -2172.994
  1347.767
   315.633
  2108.982
   919.548
  -377.651
  -668.007
 -2711.437
  -656.531
   910.098
   468.304
  -418.047
  1100.508
    65.858
 -1510.801
 -1920.568
 -1314.699
  -383.345
   383.050
   802.794
   896.819
   770.737
   538.986
   289.201
    72.457
   -93.247
  -214.455
  -313.098
  -418.721
  -562.688
 -2650.214
 -2079.390
 -3257.022
  1295.123
 -6353.461
  3255.150
  1918.178
  1943.626
 -3779.068
  -737.002
  3347.991
  -217.212
 -1476.492
  -735.667
 -2897.811
  -293.381
 -1471.626
  2997.831
  2794.096
  1675.789
 -2245.103
  -512.783
  -820.202
  -343.418
  -316.841
    94.330
   256.087
   188.359
    48.063
   -96.545
  -236.153
  -369.290
  -483.463
  -557.065
  -566.949
  -494.442
  -328.185
   -64.421
   294.138
   740.014
  1262.669
  -512.782
  -820.202
  -512.781
  -820.202
  -343.417
  -512.781
  -343.417
  3207.628
   -57.088
  1925.930
 -4883.837
  3164.349
 -1076.855
   720.418
  -447.879
 -3103.339
  1259.802
 -2724.815
  2169.534
  1258.559
  1338.558
   503.626
  3314.832
 -2582.425
  -647.828
  5184.891
  1452.996
 -3266.117
 -1057.198
   348.511
   444.689
 -1559.447
 -2209.396
 -1163.750
   325.684
  1395.572
  1787.199
  1590.358
  1021.438
   303.887
  -380.744
  -904.756
 -1189.923
 -1197.482
  -917.475
  -359.455
   454.841
  1496.921
 -1969.720
  1863.618
 -3568.492
  1995.943
  4989.893
  4043.421
 -4167.350
  2610.544
 -1224.360
  2610.544
 -1224.360
   154.151
  2610.544
   154.152
 -4300.071
  -187.961
 -5559.469
  3538.763
  1153.540
  1958.742
 -1028.647
 -1708.472
  1690.077
  -883.749
   260.495
 -3081.520
  1820.378
   772.809
 -1350.788
 -1098.631
  -433.704
 -2181.150
  4446.261
  1808.791
   101.432
 -3842.449
   536.180
  -218.049
  1065.759
  1590.074
  1097.150
   267.925
  -405.481
  -756.688
  -810.997
  -663.810
  -415.567
  -146.423
    88.873
   257.864
   344.967
   346.233
   265.116
   109.352
  -111.200
  -391.037
   974.893
 -1456.813
   806.974
 -1631.160
   656.024
   541.499
  -433.523
  1621.503
   293.647
  1511.507
  -496.695
  -105.170
 -1440.716
   665.848
   894.301
   665.848
   894.302
  -196.009
   665.848
  -196.008
   266.043
  1414.533
  1270.484
   490.116
  1500.486
 -2234.958
  -787.033
 -1208.868
   994.882
   800.227
  1123.539
 -2374.607
  -291.581
  -801.507
   109.744
 -3436.793
  1499.310
 -6795.384
  2131.000
    10.765
  4565.864
   947.108
   585.942
  -192.108
  -708.587
  -780.966
  -481.984
    21.704
   550.173
   951.219
  1123.314
  1027.555
   689.424
   189.985
  -352.247
  -804.892
 -1045.112
  -977.613
  -544.318
   274.298
  1464.117
   348.183
   430.459
  -743.969
  -508.898
    33.020
  -276.027
   733.106
   120.954
  -884.834
   639.105
  1981.812
 -1878.430
  -787.956
  -282.681
   456.768
  -765.803
  -523.520
 -1555.604
 -1329.364
  -421.127
   482.070
   947.105
   585.939
   947.103
   585.937
  -192.111
   947.100
  -192.115
  -821.757
 -1037.936
  -601.026
    44.862
 -1944.079
  1740.750
  3280.772
  -683.573
    24.316
    74.973
   361.208
  1865.250
  -320.105
 -1829.015
   855.637
   708.535
   -59.175
  -286.698
   478.153
   450.062
  -903.876
   402.665
 -1787.709
  -796.468
   478.724
  1324.019
  1613.046
  1420.023
   898.130
   218.216
  -467.449
 -1043.048
 -1433.636
 -1601.325
 -1537.624
 -1254.892
  -778.575
  -140.952
   623.485
  1481.160
  2401.335
 -1088.636
  2063.166
 -1445.606
    54.991
  -192.609
    89.213
  -117.336
  -322.286
  -724.551
   483.387
 -2418.454
  1218.914
   582.243
   984.130
  2210.155
  -965.894
  -324.672
 -1723.822
   354.702
  1791.670
  -316.918
  2598.714
  4131.431
 -1522.003
   603.782
  4039.759
 -4750.311
 -1559.475
   645.618
    -8.378
   645.617
    -8.378
 -1954.879
   645.616
 -1954.879
   469.999
   471.789
   726.123
  1445.477
 -2889.444
  2823.871
  -633.369
    71.039
   449.672
   213.501
  -349.115
  1149.874
 -2083.451
   400.065
 -2131.460
  -568.789
    49.597
  1601.931
  1551.080
  1280.399
 -1072.380
  1504.334
 -1109.349
  -908.061
  -428.071
   -69.564
   151.649
   269.331
   310.790
   294.479
   236.221
   153.569
    64.407
   -17.836
   -86.601
  -140.775
  -182.031
  -212.880
  -235.735
  -252.595
  -265.009
 -1552.676
  1779.917
 -2343.398
  -206.843
  1827.258
 -1664.509
  1429.998
  2998.536
 -2388.818
  2155.365
   460.333
 -1807.714
 -2238.985
   254.076
 -5278.780
  1118.854
 -2313.589
  5856.002
   489.292
 -2932.482
  2361.185
  -791.245
  1460.271
 -2539.022
 -2910.167
  2365.587
  2480.924
  1616.342
  1117.696
  -409.967
   773.198
  -712.479
  -535.033
   -84.908
 -1352.993
   353.223
  -276.921
   353.223
  -276.921
   -49.833
   353.222
   -49.833
  1100.985
 -1195.554
  2606.043
  -574.836
 -1241.304
  2635.708
 -1059.343
   194.324
   599.079
   359.704
    96.898
   734.355
 -1766.798
   761.071
   772.135
   262.030
  -423.070
   874.373
   218.324
 -1827.003
   847.213
 -2348.904
  2220.061
   -39.370
  2124.360
  2271.761
  1476.638
   705.352
   199.223
   -74.966
  -198.879
  -238.753
  -237.471
  -219.970
  -199.576
  -182.686
  -171.785
  -167.280
  -168.562
  -174.609
  -184.303
   178.892
  -546.146
   183.083
  -251.263
  -987.727
   251.852
 -3186.038
  -233.187
 -1326.614
   162.916
  3032.105
   137.338
   130.463
 -2888.844
  1377.799
 -1647.726
 -4334.395
  3560.772
   646.766
  2785.488
 -2341.800
  -570.247
 -1060.323
   359.742
  2979.134
 -2216.395
 -1343.902
  -909.918
   -79.161
 -1202.725
 -1420.430
  2431.927
  1801.007
  1835.851
 -2063.366
 -1009.426
 -2377.095
  -451.492
 -3196.299
  -376.982
  2503.404
 -1578.698
   130.933
 -1251.180
   130.933
 -1251.180
  -252.752
   130.933
  -252.752
  1153.921
  1364.438
   461.871
  2758.988
  1654.793
 -2223.516
  2398.665
   337.930
  2576.535
 -1813.451
 -1360.190
 -2335.720
  1716.998
   623.186
  -562.278
  1074.249
   827.883
  -491.741
   -12.412
  -348.607
   962.871
  -285.827
  1121.588
  -593.743
 -1389.375
  -980.570
  -219.097
   318.763
   483.548
   358.325
    89.447
  -196.851
  -418.982
  -536.970
  -540.726
  -438.196
  -246.278
    15.185
   326.908
   671.934
  1036.297
 -3042.444
  1316.829
 -1318.505
   845.236
   544.131
  1563.381
    81.149
  -987.868
 -1519.694
  -346.139
 -2443.745
   100.093
  1449.880
   417.066
 -1294.059
    26.602
  4446.966
 -2715.941
   764.577
 -1593.842
   377.938
 -1482.278
  2801.101
 -1557.545
  3163.211
 -2515.302
  1152.909
 -2502.442
   443.864
  -853.670
  2044.037
 -2476.058
   -56.724
  -786.542
  1877.484
   -32.806
   914.887
 -4255.588
   516.056
  2185.872
  4363.884
 -2362.277
  -308.635
 -3878.886
   826.499
 -6423.116
 -1573.993
  3095.739
   874.920
  -445.953
   820.087
  -445.953
   820.087
  1750.680
  -445.953
  1750.680
  3468.256
   920.580
  1742.545
 -1959.539
  2168.083
 -1957.007
   384.311
  1956.480
 -4188.751
  3084.779
  -242.086
 -1899.458
 -3033.443
  2788.142
 -1810.525
  1038.565
 -2335.792
  3379.597
 -2584.249
   669.449
   -33.081
  1693.945
   485.539
  1964.895
   633.055
  -541.169
  -860.603
  -612.324
  -162.091
   259.885
   551.064
   688.715
   690.404
   589.367
   421.251
   217.851
     4.709
  -199.314
  -381.515
  -534.422
  -654.713
  2102.368
 -1462.281
 -1798.655
  1979.537
  -816.923
  -402.844
   227.017
  1227.742
 -4535.484
  -853.509
 -1424.296
  -538.093
   901.887
  1875.877
   959.978
   592.352
   762.043
   354.742
   519.043
 -1214.052
  2879.458
 -1008.669
  2784.850
 -1350.849
 -1576.378
 -2903.425
  2190.812
  2124.784
  -785.905
  2025.014
 -1547.290
  5227.601
 -3797.528
  -632.153
 -1827.474
  1083.013
 -4741.499
 -1445.317
  2773.005
  3114.997
   733.979
  -529.251
   793.918
 -2358.057
  1255.130
 -1057.568
 -1110.305
 -1187.997
  1793.461
  3576.912
  2068.084
  2652.464
  2224.897
  -965.986
 -3381.213
 -2305.009
  -690.988
  -216.355
  -690.988
  -216.355
 -1325.123
  -690.989
 -1325.123
  1100.627
  -496.124
 -1208.921
   199.762
 -1108.443
  -771.243
  1997.343
  4018.825
  4349.736
 -5789.893
 -1747.190
 -1456.393
  2413.065
  1205.013
 -2781.852
 -1291.223
 -3660.661
  1606.023
 -1364.673
  3497.149
   362.327
 -2971.452
  -702.109
 -1403.203
  -845.651
  -254.395
    99.424
   266.863
   323.682
   320.677
   287.430
   240.615
   189.552
   139.362
    92.725
    50.884
    14.237
   -17.304
   -44.089
   -66.597
   -85.349
 -3515.802
  -500.332
  5298.475
  1969.621
  2660.788
  -939.518
 -5721.707
  -115.890
  1816.897
   476.655
  3249.882
 -4522.280
  1159.114
 -2370.406
  3019.166
   623.466
 -1162.359
 -3336.780
 -1863.542
  2582.388
  1865.468
  -432.482
   727.867
  -988.417
   434.172
   366.160
  -654.268
   448.442
  4865.013
   754.522
 -1141.831
 -2108.960
  -671.905
 -2515.255
 -1878.114
 -3575.985
  2741.427
 -2311.896
  -893.225
  2139.672
  1016.730
 -1353.524
 -5540.709
  -190.843
  4732.574
  4715.061
   458.703
  -113.722
 -4224.852
  2554.944
  2597.920
 -4482.852
 -1707.143
 -2399.485
  1077.698
  3486.129
  1473.721
  -552.652
  1060.101
   -62.222
 -3833.267
  -288.233
   725.553
   197.309
   351.996
   197.309
   351.995
 -1172.931
   197.308
 -1172.931
  4052.524
  3414.681
  1608.550
  1081.901
   861.864
 -1971.597
 -2581.100
  5119.621
  1657.744
   545.777
 -3775.334
   614.359
  -493.816
 -1468.528
   113.228
   722.684
   498.306
 -3232.870
  3962.374
  2196.144
 -2875.314
   423.026
  -127.127
   323.493
   299.695
   265.778
   241.529
   225.114
   214.231
   207.094
   202.440
   199.412
   197.440
   196.155
   195.314
   194.761
   194.395
   194.152
   193.988
   193.877
   193.801
   936.915
   290.852
  -902.621
 -1677.087
   -94.689
  1000.802
   554.397
 -1583.755
  -960.596
  1530.229
 -3131.436
   309.191
  -412.654
  -237.399
  1763.029
   378.764
  2173.807
   399.677
   344.667
  2203.188
   345.342
  2092.603
   -81.195
  -946.557
  -156.887
   325.358
 -3647.727
   322.705
 -1180.604
  -270.143
 -1377.249
  -283.753
   315.211
  -965.360
   310.283
   797.091
  -478.666
 -3927.373
 -3658.238
   127.660
  6175.698
   310.099
   904.044
 -1686.462
  1336.899
 -3033.842
  -126.025
 -2352.038
  -581.992
 -2681.150
 -1057.254
   896.325
 -1124.132
   699.441
    -2.612
   825.333
  -183.003
  -809.828
  1095.449
  -297.810
   373.808
   624.813
   593.504
 -1988.499
  -298.464
 -1329.962
  -299.462
   340.686
  1917.307
   392.479
  -510.339
  -253.614
  -510.340
  -253.614
   316.881
  -510.340
   316.881
  -425.928
  -434.276
  1068.145
  -616.920
   365.579
  4924.174
   469.536
  2084.148
   247.276
  2131.114
   403.276
   218.938
  -765.019
   195.936
  3237.421
  -449.239
  2773.726
  -979.187
   268.786
 -1561.106
   129.353
 -2817.485
   321.372
   316.216
   698.327
   816.668
   480.016
   -38.330
  -458.935
  -648.379
  -600.724
  -379.610
   -71.256
   242.704
   496.961
   645.059
   657.427
   517.788
   219.436
  -237.946
  -850.762
 -1873.332
 -2147.781
   926.393
  1674.342
   269.962
    74.449
 -2230.728
 -2409.130
  1613.337
  5189.642
 -2104.504
  -503.257
 -2247.317
   689.006
  1914.895
 -4665.672
   -86.278
  1726.751
  2462.739
 -1699.653
 -1290.688
 -2055.636
   794.794
   404.947
  -951.263
  1561.857
  1377.714
 -1274.695
  1212.402
  1045.247
  -764.555
  -220.202
   164.801
  -157.017
 -1314.451
 -1612.771
 -2391.404
  -484.140
 -2798.093
  -819.436
  3293.464
   357.215
  -505.793
  2298.530
   843.473
  3741.816
 -3072.379
 -3424.514
   681.483
   340.335
 -1569.287
  1816.466
 -2582.629
  2514.934
   798.766
   -89.444
    68.768
  2726.605
 -3838.392
  2581.785
 -2283.117
  2161.736
 -1327.749
 -1281.313
 -1948.251
   576.807
  5561.736
   143.089
 -1619.277
 -2959.635
  1755.389
  -368.698
  1645.942
   158.857
 -3665.430
  -425.074
  1009.918
   392.211
  -230.353
   392.210
  -230.354
    72.836
   392.210
    72.835
  3355.737
   915.671
   517.778
 -1197.306
 -2817.674
 -1985.311
  1647.474
 -1940.304
  -642.389
  4262.664
   947.008
  -662.401
 -2679.683
  -323.503
  2415.759
  2660.651
  -376.999
    55.324
 -3361.011
  -900.466
   575.620
   166.421
   -50.872
   -78.871
   -83.862
   -73.764
   -55.519
   -33.985
   -12.195
     8.175
    26.349
    42.111
    55.565
    66.976
    76.670
    84.983
    92.225
    98.668
   104.541
   110.028
   115.277
   417.915
  -250.270
   307.358
  -316.656
  -190.042
   175.887
  -269.997
  2345.990
  -593.733
  1372.408
  -398.386
  -612.860
  -911.609
  -266.377
  -149.591
   158.746
  -245.754
    48.140
   240.719
  -325.972
    44.701
  -415.866
  -784.458
  1195.226
  -922.046
  -710.298
  3848.682
  -819.773
  -135.505
   163.495
  -187.899
   137.795
    -1.626
  -174.386
   -23.110
   251.538
  -255.875
   533.895
  -381.246
  -302.876
   911.257
  -561.454
   245.083
    20.195
   271.475
    90.081
    -7.731
   261.214
   129.659
  1101.690
  -814.380
  6311.803
 -1068.895
  -715.231
   358.969
 -1212.698
  -514.305
  2099.573
 -2349.682
  2451.005
  1714.080
 -5342.017
  2148.912
    18.135
   693.075
  -619.460
   747.144
   642.519
 -1148.964
   566.848
   888.190
  -174.123
   625.651
  -113.316
  -244.931
   653.625
   -56.482
   172.898
  -195.085
   192.812
  -314.582
  -151.832
   269.225
  -264.640
   186.733
   -52.919
   186.733
   -52.919
   -78.889
   186.733
   -78.889
   225.940
  -211.653
   206.052
  -331.573
  -150.275
   153.331
  -249.299
  -796.904
   261.800
  -654.609
   414.838
   -39.585
  -276.961
    32.688
   -99.826
  -275.742
  -431.450
  -527.228
  -297.309
  -860.029
  -793.810
  -390.705
   862.791
  -316.065
 -1797.735
 -1903.180
  -888.257
   349.819
  1220.795
  1565.248
  1473.066
  1113.808
   645.763
   184.210
  -200.016
  -470.870
  -615.893
  -637.025
  -544.141
  -350.877
   -72.122
  1125.147
  1793.612
  -544.043
 -1407.149
 -1252.185
   299.891
   166.863
   -44.711
  1674.051
  -271.017
  1500.848
   938.615
 -1891.923
  -143.551
   494.305
  1771.215
 -1140.686
 -4292.207
  1691.749
  1212.432
   946.393
  1410.229
 -2221.164
  1234.116
  2500.301
   361.905
 -4174.947
  -287.631
  4114.416
   824.939
 -2599.137
 -1319.788
 -1015.826
 -1190.107
  2147.521
  -686.826
  2165.840
 -1057.542
  1170.315
   568.975
   -28.894
 -2203.982
 -1306.384
   527.037
  -885.600
  1886.105
 -2203.509
  2158.328
  -295.611
  -203.109
  -538.187
  -157.816
 -2057.806
  3665.588
  -647.592
   731.294
  2770.644
   659.308
 -2509.413
 -2142.403
  -278.948
 -2832.341
  -221.315
 -1278.657
   158.368
  -888.815
  2727.675
   122.252
 -2388.616
   -31.644
   684.149
 -1553.264
  1971.930
 -2043.663
  2081.562
  1594.664
  -403.673
  3895.127
  7933.496
 -7075.739
 -3064.661
 -6311.458
   791.424
  3603.369
   129.924
 -3089.865
  -639.365
 -2703.989
 -4712.743
  -105.893
  4374.521
  -733.693
  -637.644
  -733.694
  -637.644
   774.824
  -733.694
   774.824
  4493.887
  1867.761
  1502.531
 -1838.097
  2376.211
 -2487.750
 -1626.611
 -4943.306
  -328.494
  -369.993
  3852.684
  -430.887
  2316.375
 -1705.967
  1956.289
  2801.697
  -442.093
    99.616
   -70.033
 -3054.475
  -241.852
  -968.895
  -277.474
   860.457
    68.349
 -1171.623
 -1987.470
 -2290.664
 -2215.071
 -1909.059
 -1488.560
 -1033.977
  -596.839
  -207.505
   118.283
   374.401
   560.766
   680.885
   740.217
   745.131
   702.244
  -431.597
 -6009.367
   434.685
  5884.208
  -815.653
 -1547.744
 -1020.395
  -528.088
  4767.984
 -1813.805
  -913.028
   601.017
   528.794
 -2116.463
 -2710.749
 -1105.280
  1371.898
  -540.494
   873.683
  3159.761
   689.015
  1027.335
   -59.932
 -1449.124
 -4363.286
  2999.672
  1985.524
   356.875
  -819.855
 -4091.747
  -731.351
  4844.751
  1992.301
  1960.997
  2147.800
 -1525.554
  -332.085
  2830.856
  1458.577
  2107.172
   -98.518
 -2569.095
  4501.606
  4117.677
 -3019.483
   331.777
  -680.801
  -650.009
 -2146.461
   591.560
   243.908
  1954.935
 -2050.711
  -983.294
  -324.895
  -497.594
   631.215
  -707.701
  1022.360
 -1760.186
   126.386
   136.589
 -2301.361
  2884.481
 -5316.870
 -1024.771
 -2293.367
  4339.095
  1433.391
 -2102.734
  -121.187
  1367.419
  1538.041
 -3232.313
 -1467.227
  -714.394
   970.093
 -1840.045
   273.990
  2530.571
   675.947
 -2064.148
 -1375.601
  -126.788
 -2659.385
  3697.401
 -1312.238
  1579.919
  1345.819
   931.890
 -1696.261
  -611.926
   115.537
 -1253.316
 -2435.291
  1662.677
 -2053.019
  -870.074
  -968.895
  -277.474
  -968.895
  -277.474
   860.457
  -968.895
   860.457
  4299.757
    38.563
  2603.183
 -2603.869
  1921.719
 -1715.392
    17.577
  3450.299
 -1395.701
 -6078.720
  2304.247
 -5814.122
  3420.675
 -1577.042
  3660.881
  -616.910
  1308.932
 -2311.852
   618.510
  -561.293
  -898.431
  -768.195
  -209.301
  -654.145
  1358.152
  1919.552
  1449.884
   697.914
    32.963
  -437.260
  -720.123
  -858.388
  -896.766
  -871.188
  -807.413
  -722.715
  -628.140
  -530.447
  -433.576
  -339.667
  -249.747
 -1631.608
 -3005.706
   -33.170
  -161.302
   846.225
   -17.653
  -165.362
  1516.083
    11.574
 -3096.298
 -7782.798
  3233.130
   456.371
 -1522.152
  3653.070
  -602.975
    95.807
 -1175.624
 -4640.075
   727.887
   578.552
 -4158.742
  1505.703
 -1262.388
  5265.523
  1137.822
   301.560
  5250.340
  2748.617
  4688.196
 -1626.417
  1135.373
  1476.262
 -3339.030
 -2162.467
  1052.073
  2511.552
 -4653.756
 -1127.404
 -2791.965
  4285.594
  1156.048
  3717.838
 -4560.222
  -743.178
  -805.576
  3105.129
   762.459
  1558.070
  -903.870
 -6587.619
  1307.570
  1687.987
  -263.593
  1761.885
  4970.294
  2546.797
   296.856
  1779.836
  2349.215
 -5165.354
 -2568.291
  -742.134
  1473.544
  1047.343
  2042.720
  1935.882
   587.900
   812.723
  3074.969
    80.674
  2273.626
  -718.146
 -1621.011
 -4391.027
  3889.195
 -2372.640
   817.198
  -518.866
  4640.003
  5899.407
 -7107.475
 -6134.865
 -3097.131
  3014.063
  1495.711
 -2485.737
  -555.102
  2231.255
  -308.331
   149.734
   209.988
 -1795.853
  1087.617
 -2757.275
 -1237.783
    71.774
  1657.869
 -5248.780
 -1422.707
 -5658.825
   -36.852
 -1478.526
  1108.716
   951.306
  -768.195
  -209.301
  -768.195
  -209.301
  -654.145
  -768.196
  -654.145
  1958.166
   694.105
  1364.928
   367.676
  -788.969
  -175.397
 -3175.591
 -4826.300
 -4183.371
  4055.128
   247.129
   161.577
  -840.130
  4100.341
 -2823.351
    34.512
  -603.118
  1477.427
 -1430.355
  4205.841
 -1949.972
   703.910
  1461.221
  -547.731
   661.524
   872.801
   299.878
  -312.112
  -646.378
  -680.317
  -496.140
  -187.346
   172.166
   532.349
   862.802
  1147.214
  1378.640
  1556.038
  1681.864
  1760.490
  1797.174
  -804.039
  4706.708
  2638.196
  4478.330
 -3819.127
 -4244.679
   -98.000
 -1020.574
 -1981.862
   231.732
   259.512
  -284.522
   169.806
   166.671
   809.215
  2798.534
  -677.708
  4292.866
  -268.665
  1239.435
 -2290.370
    91.049
 -1038.311
  -988.750
  -997.890
 -6049.143
   651.373
  6954.667
  -120.668
  1183.535
   546.507
  1231.980
  -706.341
  -681.181
  -864.685
 -2057.417
 -1388.207
  2164.925
 -2172.292
 -1926.940
  5013.340
  1051.653
  4070.370
  1569.137
 -5045.446
 -2518.585
  -120.576
   274.657
 -3326.866
   410.701
 -3349.472
  -828.444
   243.291
  2752.261
  -725.032
  -337.677
  -518.379
   718.907
 -1883.080
   515.323
  -999.717
    95.920
 -1267.345
  1417.354
   112.018
  1074.229
   403.751
 -2828.819
 -2779.556
  2425.373
  1510.533
   727.964
   352.646
  -818.182
  -762.131
 -2872.090
 -2238.397
 -1471.975
 -1290.297
 -2678.506
  1446.500
  4551.884
  2366.203
  1035.156
 -2507.666
  -811.833
  1159.323
 -1723.387
  1622.635
  1386.529
  2999.460
  2433.579
   836.959
 -3868.461
 -3119.369
  -399.910
  2345.879
  3128.319
    90.567
  1263.555
 -1420.249
   574.238
 -1312.239
  1403.211
  -928.200
 -2524.267
  2929.657
 -1679.883
  4634.277
   378.728
  5253.820
  1460.466
   703.910
  1461.221
   703.910
  1461.221
  -547.731
   703.909
  -547.731
  3273.933
  1768.253
  1615.662
  -361.561
   -60.004
  -945.169
 -3708.710
  2765.994
  3561.972
  2287.458
  4122.240
   803.171
 -3441.572
 -4751.339
 -3012.795
 -1992.310
 -3395.606
 -3419.078
   -73.262
  1662.063
  2856.108
 -1471.734
   659.146
  1744.187
   148.503
 -1447.612
 -2080.075
 -1864.017
 -1199.656
  -436.023
   211.318
   646.115
   853.333
   863.792
   728.477
   502.274
   234.857
   -33.604
  -273.742
  -466.613
  -602.458
  -271.192
  2906.903
 -2474.656
 -1235.675
 -1805.034
  1231.846
  2365.163
  2222.684
   837.500
  -765.743
  1632.134
 -2100.078
 -1488.900
  1109.728
   200.808
   303.634
   465.007
   499.623
    36.620
   380.443
   461.973
 -1254.369
   933.985
 -2457.058
  4169.566
 -1406.650
   681.652
 -2075.224
 -2221.123
  -836.592
   -93.395
   -57.765
  1663.686
   223.485
   186.709
  5402.057
 -1972.635
  1463.355
 -4078.635
 -3924.172
  -816.913
  3085.386
   773.134
  -494.760
 -2349.280
  4376.283
  -278.707
   753.214
 -1344.760
   982.613
  -128.495
 -2289.765
  5207.988
  -897.775
  1575.531
 -3447.121
   392.804
  -607.374
  1306.203
 -3016.708
   838.719
 -1533.537
  1755.686
  4711.242
 -2113.980
 -2093.555
 -2572.377
  -688.483
  -887.857
  2460.448
 -3796.251
 -1062.388
   286.451
  3569.174
  -139.087
 -1876.546
  -794.949
 -1714.410
 -1222.931
 -1929.709
  -177.101
  -260.305
   543.793
  2050.664
  1801.222
 -1369.909
 -5598.784
  1148.860
  -340.182
  1688.223
   524.554
 -1273.640
  2609.948
  1190.612
 -1322.938
 -1141.321
  -242.126
   698.825
  1319.196
   311.666
 -2417.342
   849.651
  -783.570
  -375.211
   226.819
   893.331
 -1728.214
 -3139.609
  6094.831
    54.104
  1040.760
 -3147.710
 -3689.375
 -3348.343
 -2018.006
 -2324.703
 -1316.096
  5049.193
  1949.607
   728.393
  -305.675
   728.393
  -305.674
  1931.713
   728.393
  1931.714
  1688.507
   269.398
   841.343
  -378.604
  2226.562
 -3594.213
  -200.705
  1002.565
   134.169
 -2675.726
  3807.429
 -2231.059
   153.865
  -841.403
 -4631.158
  2523.780
 -5608.099
  4301.721
  2025.732
  4906.102
 -3596.647
 -3405.582
 -1018.448
   622.254
  -282.416
 -1024.375
 -1103.298
  -803.197
  -408.383
   -67.248
   169.452
   300.365
   344.148
   324.885
   265.579
   185.532
    99.514
    17.758
   -53.659
  -112.248
  -158.486
  1083.800
   526.196
 -2339.341
   610.188
  -366.638
 -2391.051
  1808.349
   484.069
 -2603.548
  1294.554
  -305.890
   953.936
 -1550.974
  3278.028
  1515.378
 -1679.880
  1210.767
   412.215
 -3091.920
 -1384.211
  2358.033
 -2568.192
 -1838.919
   532.876
   874.531
 -1569.933
   510.591
  1025.856
   859.418
 -1894.113
 -1099.280
  2309.676
  -207.219
 -1202.318
  -171.921
   -62.750
  -963.503
  -979.743
 -4027.951
  1786.887
   452.841
    49.833
 -1346.914
  3615.248
 -4539.866
 -6344.064
  2568.670
  7304.650
 -1856.792
  1047.308
  3639.636
 -4599.021
   170.402
 -2405.641
  2256.709
  3521.325
  -835.347
   -53.960
   923.396
  1383.468
   539.862
  -219.477
 -1128.277
   773.503
  1324.189
   -65.678
 -3161.059
 -1372.078
 -4206.244
  4266.294
  2444.597
  -951.318
  -419.268
 -1902.042
  1297.117
 -1704.239
   675.583
   624.956
  -815.917
   537.146
 -3599.823
  3711.996
   -41.329
  -281.296
   668.505
  1689.127
  -187.739
  1981.872
   578.167
 -1311.545
 -1517.171
 -3122.441
  1096.497
  -917.888
  2046.864
   131.958
   390.713
 -1888.271
  1774.560
   -48.268
 -3894.543
  2321.890
 -1015.485
  2361.644
  -875.302
 -1175.300
  1428.259
   862.600
 -1473.818
  -356.273
  -625.824
   700.839
  -216.987
 -1750.258
  -623.404
  3120.935
   893.233
   791.326
 -1857.165
  2449.363
  2136.486
     2.789
   -52.020
  1338.950
 -2101.008
  -730.429
   989.141
    92.490
   989.140
    92.489
 -1385.239
   989.139
 -1385.241
  -489.779
 -2344.393
   -76.829
 -1255.893
 -3666.542
  1735.702
  1754.154
  2785.000
  -452.860
 -2486.074
  1719.804
 -2507.864
  -503.499
   815.893
 -3336.739
  2623.045
 -2612.356
 -1646.597
  6803.912
  4297.539
 -3051.831
 -2102.060
 -1604.936
   526.952
  1129.348
   937.625
   596.668
   326.525
   147.944
    27.780
   -66.781
  -154.751
  -241.074
  -319.473
  -375.579
  -389.759
  -339.548
  -201.703
    46.161
   424.337
   950.177
  -871.714
  1149.637
   -96.720
    -4.823
  -959.648
 -1794.328
  -391.422
 -3121.694
  5366.663
  1788.407
  -630.213
 -2342.413
  2915.012
 -2269.952
  1964.100
 -2812.449
 -1583.852
  -424.028
  1639.166
  4535.260
   848.834
 -1007.378
  -544.626
  1950.197
 -1701.397
  2601.664
  -724.229
   356.701
   410.858
    98.886
  -316.373
  -116.014
   163.641
  -400.478
    89.821
   793.165
  1869.612
 -5123.105
  2046.630
 -2552.957
  3216.592
  -758.784
   -25.446
  1521.871
  -370.387
  -246.524
  -750.662
    25.404
     8.047
  -839.341
  -799.925
 -1842.262
  4154.660
 -2713.086
  -286.350
   551.392
  -479.248
  -373.832
   288.574
 -1497.521
  1538.799
  1135.826
   451.191
 -1801.165
  2598.801
  3408.651
  1662.594
 -1737.940
 -2218.595
 -1171.802
  -228.535
  -370.274
 -2453.443
   -79.850
   419.107
     3.854
   557.574
  -986.074
   672.630
  -312.551
   917.787
  1062.155
  -442.597
 -2299.107
  1909.242
  -307.841
 -1945.580
 -3781.480
  -168.544
  -673.730
  1975.053
 -1649.664
 -1164.711
  -116.733
 -2400.205
  -823.692
  2481.272
   418.792
 -1565.472
  1728.851
 -2429.253
  2285.810
 -1651.737
   143.429
  -697.191
 -3024.406
  2765.565
  5232.049
 -1673.173
 -1038.531
 -2396.947
   698.507
  2484.846
 -3255.308
   419.235
   362.683
   761.315
 -1899.125
   576.916
  -138.969
   507.572
 -1125.763
  3336.546
  -787.106
   200.505
 -1523.056
  1048.176
  2716.801
   534.217
  3079.956
   631.783
 -2558.270
  -823.317
 -1723.517
  1493.943
 -1723.518
  1493.943
   293.591
 -1723.518
   293.590
  -297.494
  1195.116
 -2022.951
  -553.132
  -682.936
  2340.166
 -1832.486
 -2869.484
  1205.729
  1115.016
 -1873.910
   406.309
  1996.368
  -244.921
  3650.599
 -2698.155
  4163.990
  -890.290
 -3283.242
 -3095.980
  1792.096
  4615.728
   971.032
 -1202.833
 -3425.841
 -3876.791
 -2897.072
 -1387.948
     0.157
   972.115
  1478.141
  1592.684
  1432.177
  1110.309
   718.579
   321.196
   -42.976
  -355.688
  -614.031
  -825.653
 -1004.829
  -525.821
 -3511.425
  1182.188
  1872.773
  2844.057
  -739.647
 -1056.707
 -5065.837
  4090.105
 -1695.001
 -6140.294
  6780.385
    73.718
 -4734.697
  1384.740
 -2193.617
 10376.565
  3172.298
 -4808.253
  1919.413
    11.310
  -592.569
  3105.533
  2214.896
   609.511
 -4527.279
 -1066.353
  3531.475
  -852.304
  -805.903
  -230.530
 -4228.466
  4582.723
  1248.587
  2155.875
  -409.411
  -435.837
  -193.636
  -257.980
    26.249
  -157.058
  -235.677
 -2961.599
 -1020.868
  2186.579
   213.976
  2398.857
   946.718
 -3085.582
  6291.037
 -6473.090
  -892.596
 -5189.024
  2475.076
    63.309
  7773.522
 -4252.450
 -1253.166
  1356.207
  2531.040
 -1315.324
 -1973.931
  1301.457
  2269.850
 -3914.503
  5370.564
 -1017.172
  2286.317
   478.617
   344.462
    25.379
  -852.663
   527.282
  1824.208
   780.560
  -275.125
  -769.732
 -2234.065
  -580.989
  2184.093
 -1843.365
  2218.267
   858.388
 -4613.126
  -719.363
 -2293.004
  -196.087
 -3330.040
  1908.539
   656.611
  1748.944
 -1960.438
 -2342.393
   914.040
 -5009.227
  7355.578
   297.847
  -147.370
   522.984
   250.984
   667.101
 -1125.301
  1137.541
   386.087
   428.363
 -3963.153
 -1217.069
  2770.388
 -3414.718
  3054.211
  -230.281
 -3285.080
  -800.742
  3063.708
  -564.435
 -1344.938
  -463.302
  1020.376
   557.857
 -1867.908
  -207.189
  1062.985
  -188.287
  1343.040
  -223.127
  -635.881
  -191.208
 -2248.914
  1274.574
   937.802
  1369.882
  1929.878
 -2327.724
   658.494
  1057.938
   540.440
  1494.422
 -1232.380
  -548.983
 -1621.825
   164.491
   981.559
   164.490
   981.559
  -806.270
   164.489
  -806.270
  -270.688
  -431.221
 -1073.142
  -701.214
 -1971.105
 -1050.440
  3570.079
 -2591.742
 -3168.328
  5862.917
 -4064.020
  5930.371
 -1946.583
   699.342
   788.109
   516.599
  1255.201
  3989.957
 -3909.975
 -2105.041
  -377.789
  1405.112
  -443.345
   350.124
  -416.960
 -1496.999
 -2026.991
 -1924.974
 -1401.243
  -686.197
    48.048
   689.609
  1171.043
  1454.765
  1523.025
  1371.507
  1005.166
   435.355
  -322.305
 -1249.543
 -2326.705
  -484.798
 -2978.555
  3630.917
   815.952
  2053.322
 -2028.436
 -1242.824
 -1188.780
 -1156.405
  -788.517
  2992.880
   490.695
   132.624
 -1265.239
  1874.350
  -707.281
  2297.765
 -1977.131
 -3788.454
  2225.575
 -1057.730
   631.135
  1936.106
 -4061.027
 -2332.196
  1258.035
 -3522.979
  6567.113
 -3779.362
  3601.227
 -1314.897
   278.005
   693.876
   350.188
  1194.753
 -1771.277
  -862.720
   946.546
  4228.020
  1220.943
  -794.982
 -2720.053
  1209.030
   374.069
  -350.600
  -554.412
  -165.447
  -357.625
  -653.034
 -2652.840
 -1522.743
  4187.148
 -1242.443
  1779.556
 -2155.438
   862.635
  1576.868
   690.580
   736.863
   567.556
 -1340.293
   580.029
   331.857
 -1518.661
 -1057.289
  1842.818
  4828.344
  -355.411
 -3980.793
  -213.431
  -135.756
  2953.552
 -1567.304
  1118.135
 -2572.876
  2821.678
  -837.379
   172.954
  -746.384
  1174.752
  4298.804
     8.705
  -764.166
 -3223.133
 -3382.984
  -480.782
  4711.371
 -5667.420
  3316.715
  1809.484
 -2066.617
  -806.996
 -2076.967
  -102.520
   999.898
  -651.595
  -498.676
  2027.631
  2945.092
 -1614.425
 -1870.579
 -3462.462
 -2463.899
   439.099
  2141.139
  3032.767
  2424.634
  1920.272
   851.243
  2689.388
 -3042.617
 -1450.727
 -2487.737
    96.799
  2039.795
 -1622.251
  1185.985
 -3258.028
  1689.589
   -19.763
  -434.812
   390.339
  1289.572
     3.701
  -144.465
  -584.846
 -1646.232
   845.690
 -1073.336
   305.992
   727.970
   889.630
 -1148.484
   741.283
  -731.797
  1609.631
  2729.768
 -1364.304
 -1516.671
 -1165.851
  1153.467
 -2277.740
  2212.026
 -5221.918
  2114.627
  1590.313
  1109.060
   -18.319
    34.289
   -18.319
    34.289
  -559.880
   -18.319
  -559.879
 -2301.050
 -3027.063
  -939.559
 -1510.494
  -876.702
 -1280.371
  3870.329
   354.278
  -676.797
  -770.425
 -1448.611
  1961.968
   925.399
  -133.237
   643.012
   294.815
   308.192
  2295.621
 -2192.907
 -1313.309
   192.594
  1818.952
 -1603.529
 -1040.617
 -1130.264
 -2013.716
 -2437.754
 -1778.249
  -382.121
   997.415
  1798.224
  1859.430
  1329.725
   493.008
  -365.303
 -1026.533
 -1357.927
 -1304.792
  -871.718
  -102.187
   939.038
  -738.584
    21.840
  1286.831
  2379.542
 -1372.421
 -1305.591
  -649.880
 -6041.112
 -4911.746
  -664.880
 -2629.859
  5948.093
  3371.561
   488.489
   -49.343
  1409.268
 -3560.041
 -5748.511
   780.320
  4197.780
  2126.930
  -656.591
 -3976.265
  1273.077
 -1325.136
 -2012.929
  1911.867
  2940.827
  2037.630
   220.563
  1716.968
  2132.298
   767.244
  -945.269
   474.618
   447.550
   247.501
  -656.654
 -6334.455
  3761.634
  4502.354
 -1624.683
  2734.500
 -2106.509
  6310.127
  2659.130
 -1202.240
  -248.066
 -3263.774
   505.998
   766.365
    91.638
   156.669
  1170.281
    21.993
    64.958
  -134.769
   590.227
  -615.009
 -3544.283
   959.311
  6978.409
 -1377.382
   620.005
  -647.332
   -68.009
    24.074
  -935.249
   379.987
   523.018
 -2489.906
 -1888.745
  -997.851
  -511.887
  5793.324
 -3743.596
  2478.849
 -2995.520
  -388.222
   744.529
  2999.328
 -1085.372
  2404.779
   948.493
   -78.507
  -658.861
   148.910
   -21.532
   -11.923
   638.645
   757.594
    17.553
  1533.966
  1546.659
 -2097.639
 -1300.819
  4371.269
 -1335.553
 -2759.039
 -2540.733
  -909.388
   277.078
   124.375
  -211.599
  4118.771
   370.853
 -2219.002
   985.032
   427.301
   860.741
 -2433.860
   203.086
  3040.815
   487.388
   516.787
  -773.498
  1991.553
 -4062.402
  1016.476
  1076.291
    30.326
  1558.545
   840.647
    78.093
   806.373
 -2921.879
 -1749.627
 -5414.156
   396.151
  1322.189
  5155.720
 -2522.525
   245.793
  1723.519
  1910.630
  -683.414
 -2177.626
 -2003.379
  3908.474
   104.127
  3650.456
   341.885
  3388.149
  2614.668
 -3296.218
  -984.495
 -1978.206
  1283.207
   368.832
 -1177.353
  -875.665
  2918.521
 -2956.642
   968.878
  1818.951
 -1603.529
  1818.950
 -1603.530
 -1040.617
  1818.949
 -1040.616
   566.234
   -86.156
  -376.542
 -1612.485
  4236.333
  1243.693
    62.929
  -447.436
  1950.949
 -2185.277
 -3563.776
  1430.337
   733.146
  1152.118
  3353.693
  1168.610
   -70.419
   291.903
  -683.243
 -2885.383
  -884.048
  1260.724
   109.204
   130.224
   136.043
   139.483
   141.553
   142.814
   143.597
   144.094
   144.417
   144.630
   144.774
   144.873
   144.941
   144.989
   145.022
   145.046
   145.062
   145.074
   145.082
 -4904.324
   -91.064
   662.356
  -125.603
    11.997
  5862.744
   -19.756
  1256.185
   939.886
 -2056.737
  6768.181
   135.431
   541.646
 -1730.308
  -226.285
   892.690
  2007.146
  -749.440
   140.882
 -1275.101
 -1525.252
  -233.671
    52.009
   608.945
    48.733
   144.379
   984.555
   144.261
    13.424
    -6.878
 -3354.255
  3871.915
   130.775
 -9294.233
  -964.788
  3947.320
    47.589
 -1955.121
   347.711
   137.370
  1360.026
  -106.020
 -2507.946
  -485.467
  9480.165
  7749.058
    78.267
 -2539.257
 -5867.383
 -3587.011
   -22.156
 -7002.852
  -165.873
   124.152
 -2766.046
   106.981
   104.712
   -40.657
   -17.396
   341.791
   116.772
  -114.426
   153.861
 -1262.388
  -152.600
 -3371.992
  -515.131
   142.644
  3741.723
   128.478
 -3281.652
   101.735
  -322.447
   151.158
   135.944
   560.001
   183.067
  -547.219
    64.995
   520.894
    68.193
   129.887
  1027.873
   129.713
  2597.175
  -138.694
 -1877.915
 -2059.378
   132.561
 -2589.578
 -2668.276
 -2027.732
   174.555
  1026.351
  1785.661
   -78.243
   692.434
 -1670.402
  1849.671
  -325.717
   -96.556
 -5810.238
   141.218
  1861.476
   787.570
 -3351.037
 -1079.794
   528.247
    50.426
  -142.186
  2564.862
   -96.363
   892.976
   195.928
   780.853
   604.945
   126.088
  -691.382
   134.080
  1320.858
   123.029
  1140.349
   132.999
   129.265
   789.880
   126.937
 -1815.618
 -1587.290
  6241.467
  -555.899
  2142.483
 -3832.665
 -1461.298
   497.577
  -577.316
 -1180.680
  -847.832
    26.446
   591.050
    52.696
 -3681.596
   274.696
  4446.911
   719.277
   144.906
 -2259.708
   171.239
 -2798.502
  -203.565
  4748.351
  -575.852
    82.912
 -3043.114
   -50.268
 -1255.502
   125.899
 -3103.030
   146.563
   132.936
 -4207.782
   137.335
  1260.724
   109.204
  1260.724
   109.204
   130.224
  1260.724
   130.224
   170.464
   126.792
 -1447.243
   145.028
   127.948
 -2975.216
   122.741
 -3282.765
  -130.718
  -113.724
  -881.667
   138.530
  1210.760
    91.670
 -3217.368
   111.373
 -3195.189
   155.569
   120.979
  6044.701
    90.421
  -663.842
  1235.087
   207.141
 -1566.339
 -1686.909
  -804.686
  -174.898
  -130.441
  -387.203
  -613.709
  -652.300
  -500.176
  -228.615
    79.278
   358.807
   571.396
   701.258
   748.543
   722.734
   637.607
   424.573
  -627.450
  -856.054
  -313.345
  1021.241
  2687.156
  -433.483
   620.528
  2105.921
  -789.184
  4715.039
 -3525.798
 -7176.937
   710.073
  2272.027
  1147.184
 -4479.404
   599.195
 -1014.282
   571.601
   369.369
 -2197.100
  4014.253
 -4134.986
  4683.706
 -3209.176
   603.789
 -2002.797
 -2064.530
 -2798.327
   771.463
 -3234.260
  6177.019
  6641.387
 -2169.448
   722.126
  -366.415
  2965.223
  4306.538
  4402.829
  -355.142
 -1567.854
  1443.591
 -2957.943
  -640.638
  2807.499
 -2992.317
 -3945.413
  -203.765
 -3259.856
 -2660.251
  1109.077
 -2501.832
   802.096
  4792.702
  -525.801
  1550.255
  -698.966
  1831.428
 -2058.900
  1772.560
    14.642
  1351.272
   161.749
   162.316
    36.278
    60.489
   411.410
   -15.205
    26.182
 -1120.466
  -161.070
  -733.441
  5175.893
 -1748.603
 -3967.264
  -217.576
  2790.535
  -701.617
   -47.966
  -143.806
 -2704.266
   432.343
   710.367
 -6086.087
 -2112.731
   651.711
  1336.861
  4430.012
  4041.158
 -1940.355
  3161.079
  1000.727
 -2577.314
 -2150.339
 -1810.909
  1397.164
  2472.843
   383.903
   633.132
  1305.100
 -2666.799
  -337.305
  4995.726
   265.168
  1285.249
 -2378.956
 -1322.922
 -2210.910
  1348.695
  2755.460
  2584.022
 -1391.864
  2458.807
  -321.424
  1391.852
   -72.038
   171.009
 -2220.898
 -1634.422
 -3093.511
  2301.756
 -4858.861
  4997.521
  3901.234
   212.902
  -843.109
 -1150.231
   725.904
   -65.714
 -3858.021
  4319.903
  -466.045
  5342.281
 -5498.260
  3094.269
  -648.759
  1664.282
  2788.233
  -285.227
 -3216.096
  -956.000
 -4507.064
 -2019.949
  2715.679
  5577.984
   435.504
 -3194.212
  2637.612
  1464.703
   364.791
  -182.733
  5226.034
 -2050.667
  1490.344
 -1094.939
  -499.443
 -3889.003
  1920.969
  6710.747
   235.629
  2192.332
  4938.569
  -131.033
  5152.958
 -2690.147
 -2875.797
 -3676.693
  -663.844
  1235.085
  -663.846
  1235.082
   207.139
  -663.848
   207.134
 -2872.065
 -1251.077
 -2608.785
  1799.789
 -7700.992
   928.738
  6018.587
  2285.302
 -2883.741
  1401.316
 -2439.999
  2077.995
  3128.909
  -561.960
   352.264
 -1385.359
   925.747
 -3835.201
  1881.211
  -488.296
  1822.313
   -75.071
  -119.663
   -67.954
   -66.744
   -66.729
   -66.729
   -66.729
   -66.729
   -66.729
   -66.729
   -66.729
   -66.729
   -66.729
   -66.729
   -66.729
   -66.729
   -66.729
   -66.729
   -66.729
   -66.729
 -3086.929
   -36.135
 -2668.248
    80.143
    30.355
  1787.650
   174.670
 -2317.223
   196.519
  -695.808
   291.162
   177.244
  -509.702
   280.549
 -2808.064
  -628.788
  1529.715
 -5537.031
   147.312
  1913.001
  -712.344
  2957.394
  -325.640
  1317.462
  -339.749
  -371.991
  2378.777
  -381.057
  3356.645
  -506.528
 -3443.244
 -3150.223
  -201.614
  2703.085
   457.169
   416.686
  -140.156
  -403.460
 -1381.870
  -186.722
   168.998
  1416.915
  5186.771
  -219.152
   310.344
 -1554.989
   281.034
  -168.706
  2678.350
  1050.100
  -515.659
 -3732.017
 -5821.820
   274.753
 -3187.189
  1733.056
 -2668.722
  -120.383
   592.830
   630.833
   285.686
  4010.197
  3282.923
 -1482.970
  -111.697
 -1867.638
  -131.376
    32.022
 -6456.393
   169.604
  -221.278
  -122.718
  -237.526
  -230.408
    94.637
  -181.503
   -23.927
  6354.285
    25.929
  3347.168
    82.992
    30.366
  1827.059
   172.554
 -3636.159
   124.003
  -534.024
   146.407
   253.981
   169.076
   287.262
 -3227.373
   125.591
 -2036.100
   167.847
   253.123
    55.160
   285.283
  3142.021
   110.819
 -2519.129
   188.110
   102.711
  -537.943
   248.471
    26.560
  6154.842
 -3716.185
 -2032.480
  -210.965
   681.276
    29.315
  3363.765
  -300.080
  -927.945
  -831.549
   -96.162
  4267.895
   146.401
 -3691.517
  -446.298
 -3642.721
  -444.392
  -383.609
 -3702.036
  -382.264
   435.062
     3.803
     6.906
    83.978
    64.385
 -1831.096
   216.854
 -1311.283
  -183.311
 -2489.579
  -242.974
  -113.226
 -3536.038
  -194.467
  -195.493
   138.233
 -4765.252
  -250.885
   284.818
  1974.697
   253.714
  2388.300
  -631.040
  4777.077
  -451.369
  -390.689
 -3571.809
 -1168.866
  1605.709
   240.424
 -2407.608
   225.689
   286.322
 -1530.772
   288.211
 -1613.023
   -96.476
 -2375.073
   799.826
   -14.357
   344.916
   333.215
  1965.017
   -55.932
  3466.915
    -1.496
   -33.759
  4474.587
    31.950
   -75.071
  -119.663
   -75.071
  -119.663
   -67.954
   -75.071
   -67.954
   967.171
  -100.542
  2169.070
   -89.021
   -49.986
  2771.225
   -15.017
 -1726.684
  -256.733
 -1244.087
  -369.438
  -213.849
   712.547
  -341.591
   437.629
  -230.445
  1646.823
  -315.981
  -160.119
  2829.844
  -287.389
  -334.555
  -516.882
  -778.513
  -950.715
  -950.374
  -792.488
  -540.256
  -259.728
     0.785
   213.129
   364.115
   449.447
   469.408
   426.538
   324.721
   168.961
   -34.614
  -278.782
  -555.372
  -855.523
   282.859
   267.655
   148.272
   191.422
   837.900
   138.774
   144.724
  1696.432
  1600.386
 -1920.437
 -2044.338
  1804.725
  -627.887
  -371.457
  -194.882
   -65.147
  -549.753
 -1682.348
   800.416
   -48.420
  -523.668
   520.653
   267.893
   141.315
 -1768.066
 -1631.259
  -884.026
  2593.303
 -1853.141
 -1638.197
  1332.010
   974.334
  -669.387
  1873.311
  -759.808
   857.631
   226.188
   408.272
  2129.763
  -943.561
 -1656.173
   273.422
   520.092
   407.387
  -404.980
  -674.667
   563.193
  2779.716
 -2443.897
   246.926
  -252.226
   973.057
  -464.966
   -17.516
  -658.912
 -1031.826
  -354.296
    90.999
  -790.348
 -1576.256
    71.597
  -617.107
   777.854
  -849.880
  -242.971
 -1002.938
 -1304.974
  1213.221
  1311.932
  2603.849
   -67.739
    72.405
 -1359.876
 -2484.208
 -1360.703
  1883.914
  -226.106
   232.669
   238.969
    56.127
   161.139
   201.649
   -10.157
   150.172
   399.373
   142.364
   329.240
  1357.009
  -271.334
 -2308.964
  2833.484
  -154.917
   249.038
  -182.004
  -112.421
   528.327
   377.569
   534.293
  -998.899
 -1119.168
   749.966
  1892.175
  1740.423
 -2142.327
   897.842
  -488.578
  -346.852
   161.030
   735.458
  -953.722
 -1351.110
 -3144.444
  -276.822
  -272.954
   666.120
   283.077
  -667.646
   286.226
  -205.822
   530.513
   573.211
  -818.620
   522.991
  -290.942
    -0.968
   684.461
  -100.306
  -596.017
  -304.981
   128.149
  -512.386
   229.939
  2392.531
   339.555
  -228.634
  -570.625
  -918.921
  -399.057
  -746.353
  -110.541
  1339.222
  1203.826
   984.942
   840.130
   708.298
  -610.542
 -2626.941
   655.116
   304.191
   968.286
  1067.849
  -660.952
  -150.043
   587.396
  2982.238
  2553.279
 -1566.042
 -1564.464
  1175.267
  2312.808
 -3607.516
  -368.501
   227.317
 -1645.583
 -3027.068
  1482.735
  -423.462
 -1168.334
  -185.134
  -244.123
  -791.590
 -1481.708
  1489.017
  2396.986
 -2075.936
  1466.196
   935.928
  1450.488
   270.722
  -642.976
  2453.422
 -4091.344
  -334.558
  -516.884
  -334.561
  -516.887
  -778.515
  -334.563
  -778.519
  -253.442
  1609.336
 -2133.104
  -573.979
  2591.423
  -821.491
   180.428
  -468.618
   315.500
  -811.832
 -2072.892
  1001.447
  1587.623
 -1639.663
   483.110
   333.618
  -737.042
  -578.456
    54.379
   -36.738
     8.473
    41.148
  -396.431
  -364.644
   321.252
  1037.717
  1211.210
   769.659
     5.484
  -734.317
 -1233.373
 -1428.454
 -1355.781
 -1092.402
  -718.177
  -298.159
   121.995
   514.207
   863.896
  1165.768
  1420.328
  2772.052
  1998.644
 -2205.943
  -300.284
 -4433.988
  -495.262
   753.296
  2205.008
  3626.375
    57.376
    26.734
  4986.787
   114.630
    59.360
   476.369
   553.696
  -127.666
   -41.638
  -166.175
 -1366.310
   -15.965
   429.663
  1847.244
  1569.497
 -1328.861
 -1533.536
 -1854.388
   953.943
  -576.461
 -2346.943
  2464.866
 -1122.237
  2321.299
  -498.045
  -514.123
 -1203.754
  -293.092
  1539.128
  1002.266
 -1419.142
 -2365.872
   647.599
  1089.183
  -640.057
  -555.035
  4023.927
  -625.506
  -650.729
 -1810.263
  1123.851
  1519.079
    17.246
  -927.594
   -80.409
  -725.873
   -15.334
  1539.292
  1245.629
  2364.835
 -1593.838
 -2528.280
  -200.259
 -4774.348
 -1574.512
 -1433.589
  1165.775
   600.569
  1548.298
  -682.859
  4097.570
 -1016.565
   689.240
  1436.736
  2828.363
  -970.412
  -400.779
  -479.866
 -1361.671
 -1893.966
   833.720
  -511.854
  2607.286
 -1339.124
 -1169.783
    87.188
   -62.245
  -246.617
  -329.359
  -138.933
  -197.566
  -200.710
   282.771
  -605.158
 -1338.060
   327.708
  -951.690
  4959.924
   212.698
 -1401.283
 -1391.004
  -429.944
  -592.132
   570.352
   155.805
   107.119
  1912.308
  2998.242
  -489.714
  1799.071
 -5835.828
  1051.586
   966.255
  -978.367
  -969.982
  -963.847
  -259.504
  1491.836
 -1052.062
  -597.010
  -759.023
 -1398.847
  1053.653
   205.339
   -92.258
  4582.780
   571.681
  -804.001
 -2241.768
 -2130.962
  2904.630
  1612.908
  -940.839
 -2376.411
  1385.484
   996.062
  -153.774
  1803.143
 -2659.235
  -723.168
   773.889
   688.152
  -357.937
  1071.512
  1208.575
 -2250.933
 -3813.264
  1190.576
  -486.397
  -781.795
  -469.783
  -900.374
   285.381
   537.549
  1803.801
   595.241
 -1068.290
   592.955
   693.948
   919.015
  -288.703
   599.490
  1347.778
 -1645.288
  -316.845
  1069.426
 -1067.321
 -4428.863
  1022.707
  -730.127
  1355.278
  1509.243
 -1141.145
  -199.576
  -101.549
    78.891
  1599.439
  3124.291
   394.867
  -563.036
 -2338.521
 -1600.379
   716.104
   285.735
  -560.254
   123.138
 -2722.753
  3000.254
 -1806.934
  -307.070
    41.148
  -396.431
    41.148
  -396.431
  -364.644
    41.148
  -364.643
 -2602.690
   284.944
 -1550.788
  1765.464
  3247.181
 -1404.849
   282.675
 -1670.998
  -528.785
  1873.344
   654.253
  1753.331
 -2113.229
  -944.825
  -796.600
 -1606.105
  -223.033
   252.066
 -2034.938
   240.827
  1357.104
  1090.861
    47.696
    51.282
    54.450
    55.400
    55.454
    55.203
    54.891
    54.607
    54.376
    54.197
    54.064
    53.966
    53.894
    53.843
    53.806
    53.779
    53.760
    53.746
    53.736
 -2446.308
   -39.544
    34.727
    90.244
    -0.773
   116.292
   252.533
   394.803
    64.097
 -1702.303
    97.442
    55.215
  2197.989
    56.649
  1644.030
    64.540
    68.538
    49.793
    53.591
    95.049
    43.860
  1424.958
    46.007
  1683.779
    41.005
    50.075
  1538.218
    45.009
   227.509
    30.422
 -1975.201
    11.785
    24.588
 -2928.070
    20.564
  -102.806
    50.957
  -388.175
    48.272
    53.875
  -806.969
    53.674
  7302.895
    39.588
  2736.503
    -4.759
   -33.773
 -5281.042
   -82.066
 -2462.917
   -85.263
 -1008.871
  -119.047
   -24.428
   317.910
   -83.778
  3069.691
   -42.293
 -1880.762
 -2512.203
    51.408
  -241.576
  -379.475
 -4193.752
    32.539
 -5030.328
    27.754
    50.690
 -1862.060
    54.678
  1408.778
    59.661
  2961.043
   193.543
    51.177
 -1233.623
    54.068
 -4801.581
    23.229
  2065.684
   118.763
    50.905
  1368.356
    56.867
  -606.256
    42.415
 -1934.463
    38.225
    53.230
 -3641.918
    55.431
   583.422
    61.407
   152.000
   252.211
    53.857
   103.644
   195.233
 -1501.980
    22.250
  2030.149
    30.469
    46.283
  4217.179
    26.152
  -407.495
    44.888
  -374.256
    40.088
    52.587
   348.012
    53.993
  -424.953
    38.462
 -1199.299
    33.080
    50.756
 -1887.662
    49.441
 -1074.657
    -8.903
 -3596.083
   -49.188
    20.343
  2209.847
    19.730
  -775.523
  1134.172
  -809.514
  3623.352
    58.785
 -2737.418
  -667.034
  -409.377
    55.196
 -1494.115
    72.356
    54.270
   857.370
    57.999
  -466.609
    47.741
 -1058.430
  2260.892
    -9.940
  -175.315
  -732.889
  1373.367
    45.945
  1411.870
    42.235
    48.815
  1181.378
    42.216
   498.898
    44.679
  -141.356
    41.446
    51.302
  -806.334
    51.337
 -3721.620
  -119.895
   524.791
  -134.777
   -83.241
  -590.201
  -106.336
 -4760.832
   -73.733
   -58.741
  1690.883
     2.474
  2674.593
  1016.953
   139.534
    34.156
  -780.746
    19.197
    46.141
  -347.206
    24.106
 -3246.703
    11.189
   885.308
    31.128
    42.931
  2297.890
    -7.322
   353.455
    46.235
    -6.393
    46.769
    52.182
  -166.196
    53.622
  1090.861
    47.696
  1090.861
    47.696
    51.282
  1090.861
    51.282
   106.850
    45.908
  -478.716
    45.871
    52.850
  -832.136
    54.828
  1414.399
    41.789
  3715.654
   154.203
    40.046
 -2993.964
   -30.400
   505.190
    38.764
  -231.849
    25.170
    48.065
  -537.434
    35.776
 -1238.932
  -368.759
 -1403.977
  2608.579
  3972.629
  3275.296
  2142.669
  1209.320
   562.485
   136.876
  -142.362
  -328.859
  -456.467
  -545.864
  -609.760
  -656.173
  -690.317
  -715.691
  -734.703
  -749.045
 -1866.593
  2402.990
 -2722.695
  3114.220
  -964.037
  1837.566
  -722.795
  3909.956
  2659.887
   113.805
    87.306
   471.244
   186.680
   273.654
 -1985.160
 -2517.491
  2988.528
  -236.703
  1677.574
  -743.137
   264.811
  1980.845
  -459.535
    22.631
   -21.730
  -121.101
     6.880
   -17.403
  2232.329
   820.772
   400.595
  -280.609
   637.664
 -2298.998
  1257.351
   194.984
 -3975.420
  4598.953
  1493.847
  1600.811
 -3607.603
  -916.352
   762.411
  1315.245
 -1055.896
  -196.388
 -2678.071
 -1007.470
   436.963
  -959.596
 -2356.211
 -1753.366
  3376.364
   297.572
  1244.852
 -1459.926
 -3289.380
  5496.278
  2093.279
 -3626.494
 -2850.266
    34.238
   900.438
  -238.470
  -432.447
  1016.607
   109.118
    37.886
  -852.560
  -254.041
  5420.841
  2101.134
   680.273
 -2654.773
 -1242.406
  -767.064
   804.310
 -3080.497
   990.370
    56.922
 -1225.511
 -1587.589
  1886.147
  -691.226
 -2382.614
 -3497.968
  1095.586
  1647.653
  2860.166
 -1172.092
  1131.093
 -1058.400
  1876.796
 -3812.892
  -772.751
   947.590
  5310.924
 -2729.150
   599.440
   766.722
  -127.233
  -330.883
   660.376
   -18.596
  -479.867
  -156.493
   733.789
  2142.092
  3478.698
 -4606.960
 -4579.445
   864.042
 -2431.348
   873.100
  -272.719
  -389.086
 -1023.705
   344.523
   313.654
   813.581
   546.354
   109.133
  -638.198
   508.309
    74.467
   342.409
  1458.684
 -2791.248
  5719.803
   209.985
  1636.293
 -4264.509
  -452.855
 -1230.412
   556.528
  2903.799
   760.483
  -206.344
 -3242.339
  -757.300
   -25.338
  -881.099
  -529.058
  1989.997
   789.489
   706.536
  -855.956
  4414.666
  4388.768
 -2038.511
 -3602.585
  1512.083
 -2180.889
 -2494.433
   318.616
   215.561
   987.641
  -446.318
 -1057.186
  -785.060
  -693.686
  4239.977
  2719.824
  3342.567
  2056.134
  -681.427
 -3169.294
 -3118.273
   688.423
  -857.142
  -733.145
 -2151.895
   203.264
  3772.404
  1129.584
  1291.182
  3890.417
 -4903.701
  -407.586
 -2718.028
  3679.541
  -977.980
  -205.801
 -2228.513
 -2216.134
  3957.947
  1435.515
   473.107
 -1439.711
   528.869
 -1482.853
  1203.837
  -427.447
   347.014
 -2106.215
  1237.707
  -138.524
  -661.598
  1216.324
  -547.584
     0.983
    20.682
  2068.503
 -1238.933
  -368.759
 -1238.934
  -368.760
 -1403.977
 -1238.935
 -1403.978
  -656.633
  1363.699
   412.138
  1233.919
    59.368
 -1470.371
 -3049.845
 -1026.085
  -118.189
  3705.256
   149.715
   211.880
 -1384.779
  -998.909
   600.998
  -329.341
  -775.820
 -1348.056
  -905.926
  1241.350
  1457.134
    72.732
   277.446
   135.967
  -618.229
  -940.471
  -684.980
   -75.738
   628.490
  1241.350
  1659.421
  1843.426
  1795.901
  1543.106
  1122.372
   574.006
   -63.476
  -755.849
 -1474.237
 -2195.293
 -2900.867
  1139.333
   -11.050
  1854.776
  1615.724
 -1453.307
 -2563.400
   -37.379
  -554.218
   358.751
  -634.275
   885.220
   839.525
   513.800
   752.914
  1581.957
  1729.504
    43.717
   194.179
   581.291
    12.370
   143.381
  1543.711
   313.159
  -248.316
 -1625.615
 -3376.891
   254.325
  2205.415
 -2597.544
 -1665.601
    87.455
    59.544
  1759.523
   116.974
    67.781
 -5732.730
  -192.359
 -1999.059
  2816.362
   444.375
  2015.575
  -452.179
 -1623.983
  1224.681
 -2767.369
 -3963.041
   898.070
  8357.063
  -451.706
 -3185.566
 -2185.147
  4893.874
  5135.907
  2461.905
 -2694.134
 -4669.974
  4678.462
 -1121.387
  3850.438
 -2003.313
  -931.318
  -102.207
  -213.419
 -1783.598
  3696.074
 -1541.369
  -906.755
 -2075.830
  5457.186
  -758.469
  1883.177
  -365.991
    61.065
   -49.209
  -874.528
  2035.309
  -575.477
 -4781.533
  -720.065
 -4674.401
 -4904.163
 -2532.843
  1857.068
  4242.593
 -3161.478
  4401.889
 -3569.423
 -1041.930
  2250.742
   121.387
  3839.091
   515.653
  1636.793
  -819.248
 -3312.766
  3384.359
  2484.377
  1184.244
  3020.349
  1656.760
  1520.521
  2193.831
 -4901.886
  1592.319
 -1839.652
   130.910
   170.212
   357.966
   731.492
   216.758
   232.163
   768.362
 -5812.776
  1662.414
 -1715.564
  1542.246
  1505.745
  3162.889
 -1767.607
 -2484.903
   289.688
  -268.666
   -93.339
  2855.861
   286.113
   234.301
  4800.309
  1239.427
 -2216.564
 -3693.118
 -2987.937
 -3722.729
  4147.398
  -975.700
  2114.030
  -335.054
  4266.577
 -2073.575
  -668.707
  -287.250
  -442.169
   575.942
  -172.383
 -2656.452
  1043.481
  2047.249
  -507.135
   677.461
   465.509
   -49.453
  1365.497
  -841.081
 -1266.726
 -1774.588
   577.309
  4739.836
 -2571.677
   -93.396
  1527.874
 -2143.971
 -3384.166
  2918.315
 -1018.506
  1620.575
   641.258
 -1827.876
 -3943.251
  1267.299
    61.214
   167.428
  -947.841
  -626.577
  1472.420
 -2263.078
  2327.930
 -4506.160
 -1531.042
 -1310.682
   220.282
  4508.858
 -1962.620
   925.443
  2680.804
  -950.259
  1546.397
  5877.373
 -2624.042
 -4586.792
 -1003.488
  3433.626
  -137.429
   993.397
  2659.938
 -2798.636
 -3435.540
    14.687
   -25.772
 -1454.452
 -2115.012
 -1573.502
  2146.148
 -1597.338
  1509.838
  -801.781
   770.354
  -770.901
  2800.290
  -833.842
    56.297
   406.257
    72.731
   277.446
    72.730
   277.445
   135.967
    72.729
   135.967
  -412.626
   433.825
    81.926
   745.789
  -299.642
  1463.368
 -2987.083
 -3318.126
 -2387.451
    38.472
  2834.392
  1004.937
  -543.831
  -271.363
 -1129.923
 -1402.406
   720.315
  -702.594
   216.835
  2755.304
  -641.198
  -654.465
    94.823
  -772.045
   901.825
  -658.033
   263.996
   131.736
  -452.417
   669.071
  -779.817
   796.106
  -734.613
   612.840
  -446.973
   250.971
   -36.341
  -187.771
   414.331
  -638.113
   855.393
    84.377
 -2073.120
  -260.982
  1079.480
  2007.039
   -13.639
 -1330.674
 -1409.225
  -266.832
   253.718
  -836.188
    -4.892
   616.926
  -722.019
  -310.378
   247.636
   355.660
   232.613
 -1074.915
  1279.305
 -1558.708
 -1666.012
  -431.917
   -27.605
  -890.453
   435.922
  -110.468
   -23.231
  -606.174
  -116.979
   805.652
  -350.558
   404.474
  -880.152
  -194.052
  -261.446
   -53.214
  -801.927
  2195.792
  1679.351
  -132.202
  1380.438
  -160.094
   503.982
   719.502
   430.047
 -1187.203
  2529.251
  -592.266
   -37.035
  -254.690
  -147.670
  -412.769
  -937.110
  -128.575
  -499.558
   389.360
   140.697
  -544.026
  -735.249
 -1029.176
 -1578.122
  1397.808
   126.896
   423.483
 -1663.100
  2009.537
  -540.619
  1093.437
  1627.565
  -504.027
  -250.827
  -223.551
 -1369.642
  -588.274
  -914.481
   -15.816
 -1690.439
   115.443
   830.105
  -927.321
   354.244
  -423.011
 -1540.014
  -478.859
  -113.387
  -212.702
    -2.725
   544.815
   775.800
  1204.345
 -1188.556
  -384.940
 -1088.445
   356.097
  1170.582
  -264.887
    97.359
   777.394
  -524.652
  -322.682
   504.187
  -450.578
   664.019
   689.772
  1888.961
 -1227.066
   802.227
   176.603
  -373.999
  -404.858
 -2044.543
  -520.070
   429.741
  -233.275
   228.914
  -366.462
  -232.301
  -228.140
  -927.841
 -1011.370
 -1447.778
 -1392.647
 -1206.871
   416.436
  1196.892
   194.482
 -1285.233
    33.267
 -1203.934
    40.313
  -291.533
 -1365.595
   202.880
  -976.178
 -1033.918
   361.951
  1289.779
 -1403.833
  -618.213
  -265.263
 -1237.827
  -372.679
 -1128.366
 -1381.286
  -895.909
   228.378
  -946.046
   227.951
   -13.072
  -138.433
    67.303
   738.156
   113.654
  1848.212
   354.264
   256.510
  1240.399
  -797.649
  -935.795
 -2266.580
  -767.371
 -2695.402
  -719.127
 -2108.962
  -749.888
  -714.312
 -1788.227
  -544.151
  -115.220
  -459.900
    -6.367
   492.624
  -429.698
  1257.805
   275.057
  -714.762
   870.280
 -1284.037
    21.499
  1187.423
  1167.245
  -472.360
  -958.106
 -1601.338
   305.163
   965.781
 -1767.484
   715.833
  1016.902
  1676.916
  2157.362
  2091.963
   935.975
   988.240
  -873.463
 -1414.436
  -261.132
   284.739
   216.243
   482.541
  2140.591
 -1293.515
   621.807
   370.630
   271.885
 -1314.151
 -1205.213
 -2637.326
  1488.684
  -146.353
  -402.717
  -213.403
  -460.036
  -559.357
  -807.401
  -774.824
  -654.465
    94.824
  -654.466
    94.824
  -772.045
  -654.466
  -772.045
   228.637
  -555.642
   654.322
  -848.897
  -678.992
   402.138
 -1154.395
  -838.217
   511.843
  1501.951
 -1221.161
    22.093
 -3024.511
  1428.832
   503.121
  -893.116
   367.228
  -176.651
   537.651
  -217.698
 -1445.019
    45.795
  -108.074
   266.496
  -139.974
    -0.556
   102.971
  -169.133
   209.814
  -234.278
   248.849
  -257.497
   262.626
  -265.671
   267.481
  -268.559
   269.201
  -269.585
   269.814
  -269.951
   270.033
  -335.667
  -282.572
    15.001
  -830.244
   380.689
  -181.205
   861.002
   -16.621
   100.280
  -143.287
  2174.364
   438.155
    -7.879
  -395.825
  -362.194
    37.166
  -538.840
   179.360
    10.352
  -297.829
   -99.671
   216.668
  -181.235
   265.627
  -153.938
   396.870
   193.989
   378.888
  3027.710
  -458.692
   912.399
    30.782
  -161.741
   -73.936
 -1075.301
 -2294.260
  1427.376
   989.524
  -544.247
  -325.998
  -303.343
  -203.518
  3810.575
    33.777
   347.151
  1979.011
   459.663
  -124.630
  -189.092
 -1033.597
   867.840
 -1002.044
  1192.729
  -166.838
  1452.991
   161.394
 -1434.344
   584.339
  1764.257
 -1968.192
  -459.791
 -1179.202
  -114.997
   342.741
   -86.433
 -2217.108
  -512.797
    86.119
 -1141.344
  2719.131
   504.675
  -980.831
   928.714
 -1556.499
   760.038
 -1430.122
   761.386
  -263.575
  -244.189
  -451.428
 -1265.205
   242.051
 -1891.586
  1074.711
  1618.701
  1561.555
  2290.078
  2563.408
  -255.610
  2293.813
 -1932.390
  1092.817
  -657.392
   881.734
  -743.814
   136.547
  -269.115
   123.593
   583.900
  -829.402
  -729.988
  -666.493
   225.007
 -1515.574
   216.695
 -1992.917
   875.601
   349.226
  -233.968
  -421.830
  -301.927
    42.551
 -1223.498
   571.488
 -1188.018
   725.040
  -362.690
  2343.021
  -148.236
   855.639
   565.764
  -490.523
 -1303.661
  -580.793
  -401.870
   674.057
 -1475.221
 -2863.916
  -874.191
 -3792.078
   166.425
 -1265.766
   687.339
 -2775.623
  1336.765
  -265.426
   681.392
    -9.951
  -156.811
  3325.978
  1549.718
 -1153.510
  -649.861
  -276.687
   750.354
 -1034.691
   581.439
  -499.999
  -757.044
 -1753.737
   896.591
  -798.409
  2350.196
 -1363.720
  1998.922
   414.302
  -340.532
  1709.856
  -444.905
   876.856
   507.416
   587.304
  1832.227
  2023.640
  -999.023
 -1037.894
   374.606
    40.563
  -992.512
  -327.022
  -746.766
  -838.906
   120.789
  -736.224
   874.432
  1226.991
  -279.611
  1161.388
    61.495
   404.462
 -1196.209
  -218.960
    77.578
   -38.222
  -326.735
   258.866
   279.717
 -1112.386
    52.650
  -574.376
  -115.171
  1371.178
   272.781
  -550.956
  1908.195
  -481.276
  -276.433
   813.209
  1923.909
   798.553
   130.450
  1575.218
 -1769.884
  -803.506
  -735.324
   670.612
 -2192.843
   276.602
 -1663.145
  1494.125
  -217.260
   865.570
   566.811
 -1626.609
    -6.598
 -3757.852
  2881.356
  1177.069
  -849.396
  1149.104
  -944.908
   374.781
   -59.937
  -108.206
    45.794
  -108.074
    45.794
  -108.074
   266.496
    45.794
   266.496
  -240.025
    97.180
  -268.978
   184.738
   -22.270
  -598.073
  -554.524
  -470.940
   987.868
  2219.596
  1149.790
   363.789
  -465.053
  -860.398
   221.174
     5.448
    32.555
   567.493
   159.569
  -167.124
  -556.395
  -463.697
  -116.030
    41.794
   -52.054
    66.456
   -71.669
    67.214
   -54.917
    37.832
   -19.670
     3.355
     9.806
   -19.775
    27.075
   -32.333
    36.091
   -38.770
    40.678
   -42.037
    43.005
 -1693.307
  1863.982
  4743.429
 -3758.524
 -2318.140
  -353.946
 -3854.076
   100.435
   -21.446
 -1577.809
 -1588.839
   -55.185
 -2043.420
  1784.885
 -4416.381
  -854.375
  -440.649
  -734.123
  2596.363
   -15.799
   501.935
 -1248.776
 -1005.137
  -182.981
 -1158.908
   641.168
  1252.875
 -1750.506
   -82.480
   285.194
   563.951
   649.372
  -227.579
  1260.080
  -672.659
   222.725
  -343.510
   -75.773
  1011.087
  -757.542
  -120.371
   677.398
  1772.774
  -380.491
  -308.659
   513.166
   544.920
 -2099.593
  2269.685
   983.051
   349.736
  4007.950
  3767.973
  -666.202
  -127.902
   706.012
  -224.362
 -1032.558
 -1142.104
   385.032
   243.419
  2716.982
 -2243.767
   110.996
   450.417
   937.125
 -1809.737
  -162.469
  -868.341
  -702.590
 -3472.432
 -2307.646
   703.936
 -3766.702
   370.121
     6.564
 -3813.820
   753.292
   689.605
   801.296
  -450.821
  -106.712
 -1498.778
   840.824
  2327.855
  2270.534
   537.925
  -823.552
  -119.036
 -3551.920
  2725.655
  -729.531
 -1102.260
  2585.040
  1211.211
   147.978
  -469.275
  -966.082
 -1811.063
 -2750.696
  1661.121
 -1280.873
  -212.628
 -2512.687
 -2510.450
  -545.369
 -2045.182
 -1482.287
   522.600
 -1412.671
   293.948
  1180.965
 -2714.809
 -1850.622
  2467.282
   186.581
  -340.157
   579.282
  -531.010
 -1328.056
   693.346
   245.657
 -1551.290
  -444.415
 -1221.967
  1068.329
 -1528.318
  1336.263
  1155.265
 -1382.866
 -1264.147
  1045.762
  1422.830
 -1734.495
   757.882
  2032.175
  1090.595
  2103.522
   523.303
  -937.875
 -2611.420
  -340.716
 -1486.096
 -3344.934
  1069.393
 -1084.120
  -676.001
  -155.988
   -12.088
  3893.590
 -2537.554
   507.539
 -1240.718
 -4747.885
  1065.720
  1147.476
   965.236
  2288.156
   262.036
  2552.406
 -1468.609
    11.240
   -50.980
 -1557.967
   841.981
   955.517
  -280.899
  1511.465
  1155.419
   791.984
   163.448
  1319.450
  -405.980
  1024.897
  1137.978
 -3509.061
  1557.156
  1753.941
 -2273.297
 -2202.136
  1822.593
  1487.445
 -1498.076
 -2893.092
 -4418.745
  2096.583
  5085.223
  1557.110
   832.717
   787.245
  -781.628
   558.369
  -160.910
   990.384
  -965.798
  -606.341
  2773.635
  1684.184
   380.514
  1024.307
  -679.929
    61.210
   546.916
  2121.186
   888.637
   645.531
   541.129
 -1362.607
  1699.801
 -1682.646
 -1076.256
 -2435.032
   477.224
   878.827
 -1360.920
  2490.994
 -1638.270
  3072.476
   -70.278
 -3134.819
   984.142
  -129.308
 -1934.401
  4296.300
   228.271
 -1140.468
  -326.145
  -966.069
   935.678
  -885.841
   250.565
  -463.697
  -116.030
  -463.698
  -116.029
    41.793
  -463.698
    41.793
 -1796.789
  1637.411
 -1145.803
  1954.163
 -2230.676
  3762.306
  -435.220
  -333.155
   742.438
  1574.266
  1657.075
   396.622
 -1407.476
  1488.311
   715.128
  -121.376
   596.469
   105.211
 -1875.997
  1704.963
 -1886.267
  -384.432
 -1075.773
  -544.888
   472.733
  1231.498
  1532.916
  1449.373
  1117.443
   665.147
   193.141
  -227.228
  -550.474
  -751.776
  -821.581
  -760.811
  -577.013
  -281.474
   112.794
   592.390
  1144.338
  -387.688
  -358.688
  -286.346
  -172.889
   752.386
   293.434
  -578.142
 -1478.378
 -1916.806
   271.521
  1124.505
 -2768.198
  1593.051
   156.530
  -502.877
  1004.378
  -555.877
  -632.744
   492.991
 -2402.400
  2009.118
  1645.097
  1817.633
    64.083
    76.239
   469.998
    52.237
    52.819
  -507.472
  -823.913
   881.011
  2608.913
  -263.071
  2958.202
 -4042.740
   384.670
  -468.804
  1106.159
   777.186
   579.398
  1768.162
 -1138.168
   334.629
  2369.073
   144.988
   322.621
  -423.904
   119.495
   261.013
  -993.854
   688.266
  -430.475
   844.913
 -1852.958
  2116.490
 -1030.755
   595.291
  1849.038
  -253.160
 -5289.653
 -1817.446
    -2.265
   985.570
  -697.090
 -1096.497
  -137.653
  2191.360
 -2937.263
  1094.802
  -834.060
 -1487.716
 -3533.351
  2779.864
  4300.150
  2071.847
 -1599.390
 -2783.999
  -428.476
 -3852.563
  2860.605
  2104.903
  2206.288
   148.234
 -2500.391
   293.411
  2609.301
    -0.618
   722.088
 -2916.322
 -1018.722
   349.057
   -69.525
   947.875
  -730.559
   890.153
 -1059.913
  1634.573
 -1138.759
   972.928
  2712.144
  -191.766
   731.276
 -3319.357
 -1536.036
   700.641
   -37.700
  -611.454
  2195.320
   942.720
 -2501.593
  2018.009
   419.981
  -878.792
  -942.897
  -736.339
 -1337.417
  3337.326
  3453.524
 -2670.991
   307.101
  2646.358
 -2987.790
 -3411.132
  -508.157
   -74.654
  2200.756
 -1260.645
  -782.976
  -679.396
 -1078.202
  2735.726
 -5138.201
  5586.659
  -326.633
  -584.553
  -721.086
  -589.411
  -574.144
  -625.743
  -319.348
   529.998
  3114.140
  -412.025
   608.770
 -3720.803
  1388.994
 -1266.738
 -1338.933
 -3724.973
   315.407
  1465.279
  2565.392
   606.897
  1008.908
  -471.883
 -2038.864
  1522.948
  3375.627
  -644.817
  3169.466
 -4403.240
  -244.701
 -1543.601
 -1531.011
   -18.368
  2273.949
  1090.864
  -388.898
  1282.469
  2725.427
  1155.187
 -1224.598
 -3474.799
 -3667.534
  2791.408
 -1476.408
  1264.708
  1339.111
  -756.434
  -129.015
  -521.540
  -823.332
  1284.136
  -308.136
   411.530
   396.223
 -1407.787
  1546.850
 -1374.158
  -857.452
 -1869.683
  -453.880
   788.809
  -631.375
  2165.727
  -737.971
  -443.021
  -182.286
  -522.005
  -701.703
  1484.018
   587.901
   377.489
  1694.901
  4651.432
  -308.561
  -694.523
 -5729.710
  4005.466
 -2015.298
  1944.904
  2771.915
  -122.132
 -2231.461
 -3325.282
  5328.659
 -2933.988
  1429.668
  3541.032
  -251.801
  -879.485
 -3808.893
   184.016
   137.429
  -522.220
 -2195.281
  -158.457
   -37.168
  2977.146
  2389.362
 -2370.902
   -39.720
  -666.619
  -526.011
 -1962.522
  -135.535
  2012.321
   894.861
    91.143
  -625.980
    91.143
  -625.981
   310.313
    91.143
   310.312
  1729.969
  2281.144
 -1508.834
 -1173.012
  3211.802
 -1412.353
  -359.371
 -2312.894
 -2697.281
   832.326
   910.689
  3718.355
  -719.903
  -239.249
  -548.131
  -216.815
   -13.343
   713.079
   629.229
   366.026
  -700.956
  1403.581
  -658.419
  -658.340
   -94.510
  -909.559
   -82.834
  -589.994
   -88.366
  -327.611
   -72.078
  -158.753
   -52.239
   -55.745
   -35.906
     5.866
   -23.941
    42.283
   -15.522
    63.584
    -9.661
  -744.427
  -245.961
  -457.539
  -339.598
  -316.752
  -759.216
  -197.977
   319.621
  -195.227
  -203.000
   196.682
  -200.976
   129.649
  -198.395
  1571.695
 -1159.497
  2195.969
 -1645.576
  -406.213
  2024.071
  -481.750
   530.571
 -1871.514
  2126.545
 -2084.460
  -649.478
  3981.613
   250.856
   996.670
  -363.832
    94.119
  -546.283
   -85.688
    56.939
   410.374
    58.045
  -211.627
  1305.086
   713.462
 -1131.793
  1890.763
 -2266.114
  -404.057
   -41.386
  -231.822
   259.867
   249.986
   277.748
   982.894
   234.646
  -970.321
   147.190
 -1375.061
  -301.138
  -377.411
   -77.643
 -1674.032
  -142.829
 -2346.023
   346.074
  1030.859
 -2625.669
  2821.546
 -4126.282
  -366.011
   885.820
   314.080
   134.842
  2181.311
   149.980
 -1490.837
   -30.258
 -2845.798
   -13.716
   623.760
 -4614.150
  2146.441
   956.002
  -301.237
 -2285.780
   698.811
   749.809
 -2441.913
  1336.916
   618.959
 -1800.025
  1584.379
  -627.521
 -1198.784
  1155.305
  2600.196
 -2523.703
    38.683
   908.279
   750.568
  -831.461
  2069.917
 -1324.764
   627.048
  -862.434
  1503.654
   100.403
 -1455.523
  1219.754
 -2286.795
  4544.358
   997.327
   955.471
   135.793
   722.311
  -694.996
  -244.416
 -2568.891
   404.372
  -624.381
  -876.943
  1388.919
   298.835
   846.194
 -1527.960
   -88.913
   -89.023
 -2083.399
  1320.958
  1124.998
  3203.968
 -2618.852
   695.734
     2.146
  -493.909
  1377.482
   774.493
   314.229
   839.299
   -21.918
 -2394.398
   458.181
   509.415
 -6739.816
  2808.268
   278.073
   285.380
  -593.428
   -61.510
   654.775
  -625.226
   618.390
  1876.505
   619.774
  -107.521
   526.407
  2188.833
 -1496.706
  2264.183
  -883.662
   340.134
 -1151.551
   993.874
   363.175
   104.792
  2195.068
  1860.736
   -34.500
  2076.943
   555.907
  -194.076
  2046.444
   440.767
 -3237.259
 -1063.372
 -2579.645
  -940.829
   -67.256
 -1817.016
   399.172
  1086.569
  -433.939
  -582.793
   -63.245
   574.966
  -926.489
   232.511
  3353.450
  -531.292
 -1289.139
  1377.005
  -357.053
  1633.502
 -1166.446
   539.690
   132.422
  1240.053
   849.380
 -1492.641
  1246.236
  -691.855
  1766.002
  -677.101
  1421.854
  -518.774
  -584.754
   602.652
  -609.445
  -115.985
   -19.204
    30.469
    52.612
   -43.093
   189.002
   188.846
   958.919
  1781.271
 -2197.975
   471.242
  2522.597
 -4083.689
  2281.937
   334.026
 -1443.145
  -277.071
   109.365
   801.342
  1099.154
  1965.652
 -3158.901
   860.591
    23.545
   787.361
   605.638
   779.191
   837.073
   910.800
  -742.266
 -1143.346
 -1155.386
  1241.997
 -2499.005
   737.573
 -1213.816
   224.941
 -2089.409
   448.105
    73.383
 -2855.823
   699.116
  -259.339
   -97.978
  -259.339
   -97.979
  -179.603
  -259.339
  -179.603
  -484.110
   419.977
  -448.532
   810.398
   453.844
  -147.690
  1919.580
 -1509.188
  -921.931
   129.158
 -1630.362
  -226.450
  -970.222
  1441.637
  -150.731
     6.972
 -1103.767
   817.575
 -1120.260
 -1528.983
 -2032.897
   313.686
 -1672.909
   370.951
   738.930
   869.955
   889.315
   744.836
   467.769
   134.837
  -180.565
  -428.112
  -582.041
  -635.699
  -594.926
  -472.507
  -284.174
   -46.027
   226.977
   521.783
   827.514
 -2544.192
  1351.962
  -496.773
 -4814.659
 -1766.976
 -1182.370
 -1512.956
  1304.478
   637.055
  1277.729
  1642.011
  -136.351
  -413.857
  -745.831
  1163.347
  -624.502
  -575.108
   462.930
   627.484
 -1212.924
  -120.742
  2490.668
  -490.399
  1639.493
  2185.774
 -3696.964
  -771.847
  -835.618
  2426.455
  2204.719
 -3023.783
  -411.316
 -2557.411
 -1424.322
  1942.813
  -149.128
  -673.613
    20.857
    -9.067
  -268.141
    46.429
    26.466
  -149.392
  -521.918
 -1155.455
  2930.284
 -1816.502
   271.626
   625.898
   741.064
 -2391.960
   559.636
 -1614.494
   596.593
  -243.033
  2691.359
  1067.514
  4602.258
  -419.700
  -453.716
 -1184.623
  -382.987
  -387.477
  -496.686
  4109.214
 -5988.972
  4675.222
 -4784.542
  5555.383
 -2763.267
 -2408.500
  1745.307
    60.529
    62.177
  4989.429
   134.393
   139.183
 -5625.199
   240.858
 -4248.021
  5153.732
   791.359
  4803.089
 -3189.995
   819.558
 -1205.561
 -1392.284
   575.917
 -1001.439
   281.885
  1261.208
  -667.179
 -2182.087
  1750.480
 -1654.685
  1151.159
   833.622
   662.563
   121.940
  1393.810
 -3068.117
  -770.940
    35.510
  2342.628
  -337.364
  1362.984
 -2302.275
  -887.865
  2178.270
   629.561
   -97.695
  -442.190
  -863.452
   585.207
 -2124.557
  2432.638
   157.020
  1076.827
 -1674.837
  -336.249
  -154.340
  -238.158
 -1349.113
 -1030.262
  4289.380
   187.007
 -1270.924
  -665.320
  2425.729
  -833.147
  2627.339
  -212.329
  1117.053
 -1212.122
  2708.170
 -5168.818
   956.971
    27.312
  2194.743
 -1284.634
  -942.727
  1443.576
 -2151.257
   148.051
  1189.640
   708.363
 -2828.800
  -467.444
  -257.547
   370.114
   518.040
  -213.683
   313.844
   477.609
  -842.640
  2093.550
   706.444
  2853.627
 -1894.178
  2306.491
 -3572.639
 -1993.866
 -1388.043
   412.124
   478.897
   -14.153
   226.050
   171.621
 -1871.654
 -5428.522
  6021.209
  3439.822
   491.217
  -960.861
   705.540
 -2741.389
  -517.207
  2111.867
  4310.694
   615.324
 -1048.111
 -5053.869
   890.521
  1504.482
 -2244.524
 -2963.194
  1100.718
  3349.527
 -1165.939
  -621.613
  2347.330
   256.166
  -230.188
 -2181.207
    88.918
  1336.536
  1727.682
 -1660.921
   968.220
 -1641.177
  2104.487
   145.497
   958.395
 -1863.295
 -1979.829
   708.466
  1511.527
  -500.595
  1053.710
   -68.353
  3708.397
  1256.523
  2762.355
    41.455
  3050.114
 -1386.357
 -3294.297
   407.119
  1339.505
 -2106.750
   -77.111
   525.318
  2013.413
  1733.242
 -1910.733
  -202.040
  1808.783
 -4008.943
  4035.218
  2362.141
  2754.915
    74.269
  2863.603
  3573.868
 -1949.606
 -1832.846
 -2220.070
   273.245
 -1928.631
 -3403.726
  -679.108
  -176.756
  4319.274
  3721.036
  -548.784
  -887.097
  -719.021
 -2501.916
 -2373.137
  3425.436
   566.082
  2045.196
   502.251
 -1983.171
   502.249
 -1983.173
  -238.217
   502.247
  -238.221
  -146.198
  -372.990
  -699.031
  -592.165
  2750.784
   521.841
  -640.378
  -803.248
  -886.555
  -205.645
  -180.521
   767.853
   111.286
  -192.844
  3356.155
    79.747
  -295.888
  1120.865
 -4063.467
 -2125.278
  1926.569
    68.964
  -658.419
  -255.697
   -94.510
   -73.106
   -82.834
   -89.581
   -88.366
   -81.558
   -72.078
   -61.934
   -52.239
   -43.508
   -35.906
   -29.416
   -23.941
   -19.353
   -15.522
   -12.326
    -9.661
 -1182.848
 -1823.044
  1235.187
 -2198.905
  -665.568
  3582.080
 -1089.401
  -886.793
    69.015
   479.773
   -65.963
    69.541
  -440.143
    61.281
  1449.679
  -245.961
  -169.981
  -339.598
  -809.430
  -681.396
  -845.548
   248.418
  -195.227
  -189.134
   196.682
  -198.480
   161.108
  -198.395
 -1272.310
 -1159.497
 -1466.149
 -1645.576
  -133.281
  -875.937
  -173.952
  1196.004
 -1871.514
   654.561
 -2084.460
 -1378.938
   146.806
 -1593.693
  1859.881
  -363.832
   115.976
  -546.283
  -111.544
    57.018
  -425.700
   338.827
  -211.627
  -169.428
   713.462
   153.301
  -569.774
  2104.711
   382.875
   -41.386
   250.808
   259.867
   132.678
     2.359
   592.468
  -247.195
  -970.321
  -614.340
 -1375.061
   306.412
  -383.822
  1279.796
  1050.974
  -142.829
  1988.339
   346.074
   460.906
  2484.324
  1148.132
   711.381
  -366.011
  -545.754
   314.080
  -438.518
  -296.316
  -342.984
   208.417
   -30.258
   142.797
   -13.716
   280.577
   224.979
   309.401
  -634.110
  -301.237
  -889.959
   698.811
   295.759
 -1642.879
  1337.014
  8233.562
 -1800.025
  2070.415
  -627.521
 -2194.073
 -4244.247
   512.242
  -785.519
    38.683
 -1596.749
   750.568
  -168.222
 -1736.637
   569.420
 -2458.504
  -862.434
   149.163
   100.403
  -263.395
  2034.362
   677.053
 -1990.881
   997.327
 -1999.090
   135.793
  1327.762
 -2573.618
    70.551
  1888.859
   404.372
  1190.876
  -876.943
   473.534
   791.059
  -794.515
   956.385
   -88.913
  1493.918
 -2083.399
    66.693
   750.598
 -2625.384
  1715.494
   695.734
   587.539
  -493.909
   785.176
   285.432
  -543.633
  -567.144
   -21.918
 -1872.982
   458.181
   320.218
 -3510.539
  1287.808
  1296.625
   285.380
  -542.172
   -61.510
   404.419
  -572.971
  -124.715
 -1147.353
   619.774
  -309.679
   526.407
   591.918
   171.721
   483.606
   331.102
   340.134
   567.387
   993.874
   140.250
   155.471
   375.326
   379.024
   -34.500
   709.890
   555.907
   214.366
   967.815
  1002.300
  -516.704
 -1063.372
 -1081.891
  -940.829
  -981.684
 -1308.297
  -825.551
 -2809.864
  -433.939
 -1180.957
   -63.245
    31.063
  -304.229
   167.493
 -3672.422
  -531.292
   490.701
  1377.005
    11.826
  1046.151
  1347.651
  -981.438
   132.422
  -892.230
   849.380
  -100.577
  -893.793
   832.194
  -218.932
  -677.101
   135.607
  -518.774
  -204.023
   894.254
   105.762
   563.881
   -19.204
   813.613
    52.612
   256.269
  1140.773
   449.975
 -1843.238
  1781.271
 -1134.913
   471.242
  1019.415
 -1090.463
  -290.368
 -1918.886
 -1443.145
 -1768.823
   109.365
   604.266
  -796.062
  1948.612
 -2409.396
   860.591
 -1282.619
   787.361
   413.222
   927.889
  1304.478
  1330.297
  -742.266
  -414.400
 -1155.386
    83.347
  -921.621
  -267.489
    75.814
   224.941
  -413.261
   448.105
   303.677
  -990.933
   480.341
   379.481
   -97.978
   379.481
   -97.979
   141.904
   379.481
   141.903
  -568.331
   419.977
 -1563.300
   810.398
   455.092
 -2216.599
   975.977
  5078.497
  -921.931
  4477.384
 -1630.362
    92.951
   686.888
  -181.126
  -458.136
     6.972
  -313.488
   817.575
    95.542
   141.176
   922.428
# -----------------------------------------------
# 
